{
  "_include": "/examples/Search-No-Results.json",

  "query": null,

  "count": 123456,

  "sorts": [
  ],
  "spotlights": [
      {
          "_include": "/core/promo/PromoC.json",
          "_repeat": 3
      }
  ],
  "results": [
      {
          "_include": "/core/promo/PromoC.json",
          "_repeat": 12
      }
  ],

  "pageNumber": 1,
  "pageCount": 123,
  "nextPage": "#"
}
